…
## **Selecting columns based pre-identified columns**

There is another option which avoids the continuous retyping of columns
names: `one_of()`. You can set up column names upfront, and then refer
to them inside a `select()` statement by either wrapping them inside
`one_of()` or by using the `!!` operator.

    classification <- c("name", "genus", "vore", "order", "conservation")


    msleep %>%
      select(!!classification)

    ## # A tibble: 83 x 5
    ##    name                       genus       vore  order        conservation
    ##    <chr>                      <chr>       <chr> <chr>        <chr>       
    ##  1 Cheetah                    Acinonyx    carni Carnivora    lc          
    ##  2 Owl monkey                 Aotus       omni  Primates     <NA>        
    ##  3 Mountain beaver            Aplodontia  herbi Rodentia     nt          
    ##  4 Greater short-tailed shrew Blarina     omni  Soricomorpha lc          
    ##  5 Cow                        Bos         herbi Artiodactyla domesticated
    ##  6 Three-toed sloth           Bradypus    herbi Pilosa       <NA>        
    ##  7 Northern fur seal          Callorhinus carni Carnivora    vu          
    ##  8 Vesper mouse               Calomys     <NA>  Rodentia     <NA>        
    ##  9 Dog                        Canis       carni Carnivora    domesticated
    ## 10 Roe deer                   Capreolus   herbi Artiodactyla lc          
    ## # ... with 73 more rows
…
    msleep %>%
      select_if(is.numeric) %>%
      select_if(~mean(., na.rm=TRUE) > 10)

<br> or shorter:

    msleep %>%
      select_if(~is.numeric(.) & mean(., na.rm=TRUE) > 10)

    ## # A tibble: 83 x 3
    ##    sleep_total awake  bodywt
    ##          <dbl> <dbl>   <dbl>
    ##  1        12.1  11.9  50    
    ##  2        17     7     0.48 
    ##  3        14.4   9.6   1.35 
    ##  4        14.9   9.1   0.019
    ##  5         4    20   600    
    ##  6        14.4   9.6   3.85 
    ##  7         8.7  15.3  20.5  
    ##  8         7    17     0.045
    ##  9        10.1  13.9  14    
    ## 10         3    21    14.8  
    ## # ... with 73 more rows

<br>

One of the useful functions for `select_if` is `n_distinct()`, which
counts the amount of distinct values that can be found in a column.  
To return the columns that have less than 20 distinct answers for
instance you pass `~n_distinct(.) < 20` within the select\_if statement.
Given that `n_distinct(.) < 20` is not a function, you will need to put
a tilde in front.

    msleep %>%
      select_if(~n_distinct(.) < 10)

    ## # A tibble: 83 x 2
    ##    vore  conservation
    ##    <chr> <chr>       
    ##  1 carni lc          
    ##  2 omni  <NA>        
    ##  3 herbi nt          
    ##  4 omni  lc          
    ##  5 herbi domesticated
    ##  6 herbi <NA>        
    ##  7 carni vu          
    ##  8 <NA>  <NA>        
    ##  9 carni domesticated
    ## 10 herbi lc          
    ## # ... with 73 more rows
…
<br><br>

## **Reformatting all column names**

The `select_all()` function allows changes to all columns, and takes a
function as an argument.

To get all column names in uppercase, you can use `toupper()`, similarly
you could use `tolower()`.

    msleep %>%
      select_all(toupper)

    ## # A tibble: 83 x 11
    ##    NAME   GENUS VORE  ORDER CONSERVATION SLEEP_TOTAL SLEEP_REM SLEEP_CYCLE AWAKE
    ##    <chr>  <chr> <chr> <chr> <chr>              <dbl>     <dbl>       <dbl> <dbl>
    ##  1 Cheet~ Acin~ carni Carn~ lc                  12.1      NA        NA      11.9
    ##  2 Owl m~ Aotus omni  Prim~ <NA>                17         1.8      NA       7  
    ##  3 Mount~ Aplo~ herbi Rode~ nt                  14.4       2.4      NA       9.6
    ##  4 Great~ Blar~ omni  Sori~ lc                  14.9       2.3       0.133   9.1
    ##  5 Cow    Bos   herbi Arti~ domesticated         4         0.7       0.667  20  
    ##  6 Three~ Brad~ herbi Pilo~ <NA>                14.4       2.2       0.767   9.6
    ##  7 North~ Call~ carni Carn~ vu                   8.7       1.4       0.383  15.3
    ##  8 Vespe~ Calo~ <NA>  Rode~ <NA>                 7        NA        NA      17  
    ##  9 Dog    Canis carni Carn~ domesticated        10.1       2.9       0.333  13.9
    ## 10 Roe d~ Capr~ herbi Arti~ lc                   3        NA        NA      21  
    ## # ... with 73 more rows, and 2 more variables: BRAINWT <dbl>, BODYWT <dbl>

<br>

You can go further than that by creating functions on the fly: if you
have messy column names coming from excel for instance you can replace
all white spaces with an underscore.

    #making an unclean database:
    msleep2 <- select(msleep, name, sleep_total, brainwt)
    colnames(msleep2) <- c("name", "sleep total", "brain weight")

    msleep2 %>%
      select_all(~str_replace(., " ", "_"))

    ## # A tibble: 83 x 3
    ##    name                       sleep_total brain_weight
    ##    <chr>                            <dbl>        <dbl>
    ##  1 Cheetah                           12.1     NA      
    ##  2 Owl monkey                        17        0.0155 
    ##  3 Mountain beaver                   14.4     NA      
    ##  4 Greater short-tailed shrew        14.9      0.00029
    ##  5 Cow                                4        0.423  
    ##  6 Three-toed sloth                  14.4     NA      
    ##  7 Northern fur seal                  8.7     NA      
    ##  8 Vesper mouse                       7       NA      
    ##  9 Dog                               10.1      0.07   
    ## 10 Roe deer                           3        0.0982 
    ## # ... with 73 more rows
…
